%YAML 1.1
%TAG !u! tag:unity3d.com,2011:
--- !u!1045 &1
EditorBuildSettings:
  m_ObjectHideFlags: 0
  serializedVersion: 2
  m_Scenes:
  - enabled: 1
    path: Assets/Scenes/MultiPlay_Room.unity
    guid: 80bb4edc423b22d47b16618ee3308c35
  - enabled: 1
    path: Assets/Scenes/GamePlay.unity
    guid: 1016d48beaa919c428d1abee1829115c
  m_configObjects: {}
