%YAML 1.1
%TAG !u! tag:unity3d.com,2011:
--- !u!1001 &1385862470030207687
PrefabInstance:
  m_ObjectHideFlags: 0
  serializedVersion: 2
  m_Modification:
    m_TransformParent: {fileID: 0}
    m_Modifications:
    - target: {fileID: 1273026191133858253, guid: 422c46f46c51de2409b59baaf434bf53, type: 3}
      propertyPath: m_Layer
      value: 11
      objectReference: {fileID: 0}
    - target: {fileID: 3901316725397486394, guid: 422c46f46c51de2409b59baaf434bf53, type: 3}
      propertyPath: m_Name
      value: ItemEquipmentOnRoad_Prefab
      objectReference: {fileID: 0}
    - target: {fileID: 3901316725397486394, guid: 422c46f46c51de2409b59baaf434bf53, type: 3}
      propertyPath: m_Layer
      value: 11
      objectReference: {fileID: 0}
    - target: {fileID: 4085522015410915170, guid: 422c46f46c51de2409b59baaf434bf53, type: 3}
      propertyPath: m_RootOrder
      value: 0
      objectReference: {fileID: 0}
    - target: {fileID: 4085522015410915170, guid: 422c46f46c51de2409b59baaf434bf53, type: 3}
      propertyPath: m_LocalPosition.x
      value: 0
      objectReference: {fileID: 0}
    - target: {fileID: 4085522015410915170, guid: 422c46f46c51de2409b59baaf434bf53, type: 3}
      propertyPath: m_LocalPosition.y
      value: 0
      objectReference: {fileID: 0}
    - target: {fileID: 4085522015410915170, guid: 422c46f46c51de2409b59baaf434bf53, type: 3}
      propertyPath: m_LocalPosition.z
      value: 0
      objectReference: {fileID: 0}
    - target: {fileID: 4085522015410915170, guid: 422c46f46c51de2409b59baaf434bf53, type: 3}
      propertyPath: m_LocalRotation.w
      value: 1
      objectReference: {fileID: 0}
    - target: {fileID: 4085522015410915170, guid: 422c46f46c51de2409b59baaf434bf53, type: 3}
      propertyPath: m_LocalRotation.x
      value: 0
      objectReference: {fileID: 0}
    - target: {fileID: 4085522015410915170, guid: 422c46f46c51de2409b59baaf434bf53, type: 3}
      propertyPath: m_LocalRotation.y
      value: 0
      objectReference: {fileID: 0}
    - target: {fileID: 4085522015410915170, guid: 422c46f46c51de2409b59baaf434bf53, type: 3}
      propertyPath: m_LocalRotation.z
      value: 0
      objectReference: {fileID: 0}
    - target: {fileID: 4085522015410915170, guid: 422c46f46c51de2409b59baaf434bf53, type: 3}
      propertyPath: m_LocalEulerAnglesHint.x
      value: 0
      objectReference: {fileID: 0}
    - target: {fileID: 4085522015410915170, guid: 422c46f46c51de2409b59baaf434bf53, type: 3}
      propertyPath: m_LocalEulerAnglesHint.y
      value: 0
      objectReference: {fileID: 0}
    - target: {fileID: 4085522015410915170, guid: 422c46f46c51de2409b59baaf434bf53, type: 3}
      propertyPath: m_LocalEulerAnglesHint.z
      value: 0
      objectReference: {fileID: 0}
    - target: {fileID: 6361398778248116533, guid: 422c46f46c51de2409b59baaf434bf53, type: 3}
      propertyPath: m_Layer
      value: 11
      objectReference: {fileID: 0}
    - target: {fileID: 6996322259526319336, guid: 422c46f46c51de2409b59baaf434bf53, type: 3}
      propertyPath: m_Size.x
      value: 0.5
      objectReference: {fileID: 0}
    - target: {fileID: 6996322259526319336, guid: 422c46f46c51de2409b59baaf434bf53, type: 3}
      propertyPath: m_Size.y
      value: 1.5
      objectReference: {fileID: 0}
    - target: {fileID: 7123229375417270722, guid: 422c46f46c51de2409b59baaf434bf53, type: 3}
      propertyPath: m_LocalRotation.w
      value: 0.9659259
      objectReference: {fileID: 0}
    - target: {fileID: 7123229375417270722, guid: 422c46f46c51de2409b59baaf434bf53, type: 3}
      propertyPath: m_LocalRotation.x
      value: 0
      objectReference: {fileID: 0}
    - target: {fileID: 7123229375417270722, guid: 422c46f46c51de2409b59baaf434bf53, type: 3}
      propertyPath: m_LocalRotation.y
      value: 0
      objectReference: {fileID: 0}
    - target: {fileID: 7123229375417270722, guid: 422c46f46c51de2409b59baaf434bf53, type: 3}
      propertyPath: m_LocalRotation.z
      value: -0.258819
      objectReference: {fileID: 0}
    - target: {fileID: 7123229375417270722, guid: 422c46f46c51de2409b59baaf434bf53, type: 3}
      propertyPath: m_LocalEulerAnglesHint.z
      value: -30
      objectReference: {fileID: 0}
    - target: {fileID: 8218482085180950489, guid: 422c46f46c51de2409b59baaf434bf53, type: 3}
      propertyPath: m_Size.x
      value: 2.56
      objectReference: {fileID: 0}
    - target: {fileID: 8218482085180950489, guid: 422c46f46c51de2409b59baaf434bf53, type: 3}
      propertyPath: m_Size.y
      value: 2.56
      objectReference: {fileID: 0}
    - target: {fileID: 8218482085180950489, guid: 422c46f46c51de2409b59baaf434bf53, type: 3}
      propertyPath: m_Sprite
      value: 
      objectReference: {fileID: 21300000, guid: 975c60efe1de6414881470156583f8c0, type: 3}
    - target: {fileID: 8218482085180950489, guid: 422c46f46c51de2409b59baaf434bf53, type: 3}
      propertyPath: m_WasSpriteAssigned
      value: 1
      objectReference: {fileID: 0}
    - target: {fileID: 8856431948582578414, guid: 422c46f46c51de2409b59baaf434bf53, type: 3}
      propertyPath: m_Radius
      value: 1
      objectReference: {fileID: 0}
    m_RemovedComponents:
    - {fileID: 6996322259526319336, guid: 422c46f46c51de2409b59baaf434bf53, type: 3}
  m_SourcePrefab: {fileID: 100100000, guid: 422c46f46c51de2409b59baaf434bf53, type: 3}
--- !u!1 &2675085911794471421 stripped
GameObject:
  m_CorrespondingSourceObject: {fileID: 3901316725397486394, guid: 422c46f46c51de2409b59baaf434bf53, type: 3}
  m_PrefabInstance: {fileID: 1385862470030207687}
  m_PrefabAsset: {fileID: 0}
--- !u!212 &7004922039331810590 stripped
SpriteRenderer:
  m_CorrespondingSourceObject: {fileID: 8218482085180950489, guid: 422c46f46c51de2409b59baaf434bf53, type: 3}
  m_PrefabInstance: {fileID: 1385862470030207687}
  m_PrefabAsset: {fileID: 0}
--- !u!114 &1463759474947523644
MonoBehaviour:
  m_ObjectHideFlags: 0
  m_CorrespondingSourceObject: {fileID: 0}
  m_PrefabInstance: {fileID: 0}
  m_PrefabAsset: {fileID: 0}
  m_GameObject: {fileID: 2675085911794471421}
  m_Enabled: 1
  m_EditorHideFlags: 0
  m_Script: {fileID: 11500000, guid: 88a9e3710f4e96148a714986e08890ae, type: 3}
  m_Name: 
  m_EditorClassIdentifier: 
  item: {fileID: 11400000, guid: 53916aa5dea71d748857e8081c1a4141, type: 2}
  icon: {fileID: 7004922039331810590}
